[
  "file-explorer",
  "global-search",
  "switcher",
  "graph",
  "backlink",
  "tag-pane",
  "page-preview",
  "note-composer",
  "slash-command",
  "editor-status",
  "outline",
  "word-count",
  "open-with-default-app",
  "file-recovery"
]